{
  "title": "Personal #1",
  "topics": [
       "Best meal you have ever had?",
   "Describe the what was the most painful injury you ever had.",
   "Describe your most stressful travel experience.",
   "Describe your perfect summer day.",
   "Did you learn how to swim?",
   "Discuss your favorite sports player. ",
   "Describe a video game you hated.",
   "Do you sing in the shower?",
   "Do you think crying is a sign of weakness?",
   "Do you think you will ever stop celebrating your birthday?",
   "Do you think people with pets live longer?",
   "Is it better to find love or get married before you turn 30?",
   "Have you ever peed your pants?",
   "Have you ever pooped your pants?",
   "Have you ever broken the law?",
   "Have you ever stolen anything?",
   "Have you ever worked more then one job at a time?",
   "Have you ever had to get stitches?",
   "Do you have dinner with your family?",
   "How do you keep fit?"]
   }
