{
  "title": "Personal #2",
  "topics": [
   "If I could go back in time, what would I tell my younger self?",
   "If money is not a concern, what will you be doing everyday?",
   "If you became animal what would you be and why?",
   "If you could transform into an animal, what would it be and why?",
   "What is one book that you would make required reading for all high school kids and why?",
   "If you could instantly be an expert at something what would it be?",
   "If you could master one instrument what would it be and why?",
   "What is your least favorite movie?",
   "What is your least favorite song?",
   "What is your least favorite book?",
   "What can you do today that you couldn’t do a year ago?",
   "What do you do when your plan fails?",
   "What do you hate about summer?",
   "What do you love about summer?",
   "What do you spend too much money on?",
   "What is a tradition you do on Christmas?",
   "What is the best meal you have ever eaten in your life?",
   "What is the best moment with your pet?",
   "What is the best purchase you made this year for under $100?",
   "What is the coolest thing a stranger has ever done for you?"]
   }
